^U:\TYR\TYR_ENGINE_LIBRARY\DEPS\IMGUI-MASTER\IMGUI.CPP
/c /IU:\TYR\TYR_ENGINE_LIBRARY\DEPS\INCLUDE /Zi /nologo /W3 /WX- /sdl /O2 /Oi /Oy- /GL /D WIN32 /D NDEBUG /D _LIB /D SFML_STATIC /D _UNICODE /D UNICODE /Gm- /EHsc /MD /GS /Gy /fp:precise /Zc:wchar_t /Zc:forScope /Zc:inline /Fo"RELEASE\\" /Fd"RELEASE\TYR_ENGINE_LIBRARY.PDB" /Gd /TP /analyze- U:\TYR\TYR_ENGINE_LIBRARY\DEPS\IMGUI-MASTER\IMGUI.CPP
^U:\TYR\TYR_ENGINE_LIBRARY\DEPS\IMGUI-MASTER\IMGUI_DEMO.CPP
/c /IU:\TYR\TYR_ENGINE_LIBRARY\DEPS\INCLUDE /Zi /nologo /W3 /WX- /sdl /O2 /Oi /Oy- /GL /D WIN32 /D NDEBUG /D _LIB /D SFML_STATIC /D _UNICODE /D UNICODE /Gm- /EHsc /MD /GS /Gy /fp:precise /Zc:wchar_t /Zc:forScope /Zc:inline /Fo"RELEASE\\" /Fd"RELEASE\TYR_ENGINE_LIBRARY.PDB" /Gd /TP /analyze- U:\TYR\TYR_ENGINE_LIBRARY\DEPS\IMGUI-MASTER\IMGUI_DEMO.CPP
^U:\TYR\TYR_ENGINE_LIBRARY\DEPS\IMGUI-MASTER\IMGUI_DRAW.CPP
/c /IU:\TYR\TYR_ENGINE_LIBRARY\DEPS\INCLUDE /Zi /nologo /W3 /WX- /sdl /O2 /Oi /Oy- /GL /D WIN32 /D NDEBUG /D _LIB /D SFML_STATIC /D _UNICODE /D UNICODE /Gm- /EHsc /MD /GS /Gy /fp:precise /Zc:wchar_t /Zc:forScope /Zc:inline /Fo"RELEASE\\" /Fd"RELEASE\TYR_ENGINE_LIBRARY.PDB" /Gd /TP /analyze- U:\TYR\TYR_ENGINE_LIBRARY\DEPS\IMGUI-MASTER\IMGUI_DRAW.CPP
^U:\TYR\TYR_ENGINE_LIBRARY\DEPS\IMGUI-SFML-MASTER\IMGUI-SFML.CPP
/c /IU:\TYR\TYR_ENGINE_LIBRARY\DEPS\INCLUDE /Zi /nologo /W3 /WX- /sdl /O2 /Oi /Oy- /GL /D WIN32 /D NDEBUG /D _LIB /D SFML_STATIC /D _UNICODE /D UNICODE /Gm- /EHsc /MD /GS /Gy /fp:precise /Zc:wchar_t /Zc:forScope /Zc:inline /Fo"RELEASE\\" /Fd"RELEASE\TYR_ENGINE_LIBRARY.PDB" /Gd /TP /analyze- U:\TYR\TYR_ENGINE_LIBRARY\DEPS\IMGUI-SFML-MASTER\IMGUI-SFML.CPP
^U:\TYR\TYR_ENGINE_LIBRARY\MAPFILE.CPP
/c /IU:\TYR\TYR_ENGINE_LIBRARY\DEPS\INCLUDE /Zi /nologo /W3 /WX- /sdl /O2 /Oi /Oy- /GL /D WIN32 /D NDEBUG /D _LIB /D SFML_STATIC /D _UNICODE /D UNICODE /Gm- /EHsc /MD /GS /Gy /fp:precise /Zc:wchar_t /Zc:forScope /Zc:inline /Fo"RELEASE\\" /Fd"RELEASE\TYR_ENGINE_LIBRARY.PDB" /Gd /TP /analyze- U:\TYR\TYR_ENGINE_LIBRARY\MAPFILE.CPP
^U:\TYR\TYR_ENGINE_LIBRARY\PLAYER.CPP
/c /IU:\TYR\TYR_ENGINE_LIBRARY\DEPS\INCLUDE /Zi /nologo /W3 /WX- /sdl /O2 /Oi /Oy- /GL /D WIN32 /D NDEBUG /D _LIB /D SFML_STATIC /D _UNICODE /D UNICODE /Gm- /EHsc /MD /GS /Gy /fp:precise /Zc:wchar_t /Zc:forScope /Zc:inline /Fo"RELEASE\\" /Fd"RELEASE\TYR_ENGINE_LIBRARY.PDB" /Gd /TP /analyze- U:\TYR\TYR_ENGINE_LIBRARY\PLAYER.CPP
^U:\TYR\TYR_ENGINE_LIBRARY\RAYCASTER_UTILS.CPP
/c /IU:\TYR\TYR_ENGINE_LIBRARY\DEPS\INCLUDE /Zi /nologo /W3 /WX- /sdl /O2 /Oi /Oy- /GL /D WIN32 /D NDEBUG /D _LIB /D SFML_STATIC /D _UNICODE /D UNICODE /Gm- /EHsc /MD /GS /Gy /fp:precise /Zc:wchar_t /Zc:forScope /Zc:inline /Fo"RELEASE\\" /Fd"RELEASE\TYR_ENGINE_LIBRARY.PDB" /Gd /TP /analyze- U:\TYR\TYR_ENGINE_LIBRARY\RAYCASTER_UTILS.CPP
^U:\TYR\TYR_ENGINE_LIBRARY\INPUT.CPP
/c /IU:\TYR\TYR_ENGINE_LIBRARY\DEPS\INCLUDE /Zi /nologo /W3 /WX- /diagnostics:classic /sdl /O2 /Oi /Oy- /GL /D WIN32 /D NDEBUG /D _LIB /D SFML_STATIC /D _UNICODE /D UNICODE /Gm- /EHsc /MD /GS /Gy /fp:precise /Zc:wchar_t /Zc:forScope /Zc:inline /Fo"RELEASE\\" /Fd"RELEASE\TYR_ENGINE_LIBRARY.PDB" /Gd /TP /analyze- U:\TYR\TYR_ENGINE_LIBRARY\INPUT.CPP
^U:\TYR\TYR_ENGINE_LIBRARY\COLLIDERCOMPONENT.CPP
/c /IU:\TYR\TYR_ENGINE_LIBRARY\DEPS\INCLUDE /Zi /nologo /W3 /WX- /diagnostics:classic /sdl /O2 /Oi /Oy- /GL /D WIN32 /D NDEBUG /D _LIB /D SFML_STATIC /D _UNICODE /D UNICODE /Gm- /EHsc /MD /GS /Gy /fp:precise /Zc:wchar_t /Zc:forScope /Zc:inline /Fo"RELEASE\\" /Fd"RELEASE\TYR_ENGINE_LIBRARY.PDB" /Gd /TP /analyze- U:\TYR\TYR_ENGINE_LIBRARY\COLLIDERCOMPONENT.CPP
^U:\TYR\TYR_ENGINE_LIBRARY\COMPONENT.CPP
/c /IU:\TYR\TYR_ENGINE_LIBRARY\DEPS\INCLUDE /Zi /nologo /W3 /WX- /diagnostics:classic /sdl /O2 /Oi /Oy- /GL /D WIN32 /D NDEBUG /D _LIB /D SFML_STATIC /D _UNICODE /D UNICODE /Gm- /EHsc /MD /GS /Gy /fp:precise /Zc:wchar_t /Zc:forScope /Zc:inline /Fo"RELEASE\\" /Fd"RELEASE\TYR_ENGINE_LIBRARY.PDB" /Gd /TP /analyze- U:\TYR\TYR_ENGINE_LIBRARY\COMPONENT.CPP
^U:\TYR\TYR_ENGINE_LIBRARY\CUBEMAPTEXTURE.CPP
/c /IU:\TYR\TYR_ENGINE_LIBRARY\DEPS\INCLUDE /Zi /nologo /W3 /WX- /diagnostics:classic /sdl /O2 /Oi /Oy- /GL /D WIN32 /D NDEBUG /D _LIB /D SFML_STATIC /D _UNICODE /D UNICODE /Gm- /EHsc /MD /GS /Gy /fp:precise /Zc:wchar_t /Zc:forScope /Zc:inline /Fo"RELEASE\\" /Fd"RELEASE\TYR_ENGINE_LIBRARY.PDB" /Gd /TP /analyze- U:\TYR\TYR_ENGINE_LIBRARY\CUBEMAPTEXTURE.CPP
^U:\TYR\TYR_ENGINE_LIBRARY\GL_SHADER.CPP
/c /IU:\TYR\TYR_ENGINE_LIBRARY\DEPS\INCLUDE /Zi /nologo /W3 /WX- /diagnostics:classic /sdl /O2 /Oi /Oy- /GL /D WIN32 /D NDEBUG /D _LIB /D SFML_STATIC /D _UNICODE /D UNICODE /Gm- /EHsc /MD /GS /Gy /fp:precise /Zc:wchar_t /Zc:forScope /Zc:inline /Fo"RELEASE\\" /Fd"RELEASE\TYR_ENGINE_LIBRARY.PDB" /Gd /TP /analyze- U:\TYR\TYR_ENGINE_LIBRARY\GL_SHADER.CPP
^U:\TYR\TYR_ENGINE_LIBRARY\GUI.CPP
/c /IU:\TYR\TYR_ENGINE_LIBRARY\DEPS\INCLUDE /Zi /nologo /W3 /WX- /diagnostics:classic /sdl /O2 /Oi /Oy- /GL /D WIN32 /D NDEBUG /D _LIB /D SFML_STATIC /D _UNICODE /D UNICODE /Gm- /EHsc /MD /GS /Gy /fp:precise /Zc:wchar_t /Zc:forScope /Zc:inline /Fo"RELEASE\\" /Fd"RELEASE\TYR_ENGINE_LIBRARY.PDB" /Gd /TP /analyze- U:\TYR\TYR_ENGINE_LIBRARY\GUI.CPP
^U:\TYR\TYR_ENGINE_LIBRARY\IMGUI\IMGUI.CPP
/c /IU:\TYR\TYR_ENGINE_LIBRARY\DEPS\INCLUDE /Zi /nologo /W3 /WX- /diagnostics:classic /sdl /O2 /Oi /Oy- /GL /D WIN32 /D NDEBUG /D _LIB /D SFML_STATIC /D _UNICODE /D UNICODE /Gm- /EHsc /MD /GS /Gy /fp:precise /Zc:wchar_t /Zc:forScope /Zc:inline /Fo"RELEASE\\" /Fd"RELEASE\TYR_ENGINE_LIBRARY.PDB" /Gd /TP /analyze- U:\TYR\TYR_ENGINE_LIBRARY\IMGUI\IMGUI.CPP
^U:\TYR\TYR_ENGINE_LIBRARY\IMGUI\IMGUI_DEMO.CPP
/c /IU:\TYR\TYR_ENGINE_LIBRARY\DEPS\INCLUDE /Zi /nologo /W3 /WX- /diagnostics:classic /sdl /O2 /Oi /Oy- /GL /D WIN32 /D NDEBUG /D _LIB /D SFML_STATIC /D _UNICODE /D UNICODE /Gm- /EHsc /MD /GS /Gy /fp:precise /Zc:wchar_t /Zc:forScope /Zc:inline /Fo"RELEASE\\" /Fd"RELEASE\TYR_ENGINE_LIBRARY.PDB" /Gd /TP /analyze- U:\TYR\TYR_ENGINE_LIBRARY\IMGUI\IMGUI_DEMO.CPP
^U:\TYR\TYR_ENGINE_LIBRARY\IMGUI\IMGUI_DRAW.CPP
/c /IU:\TYR\TYR_ENGINE_LIBRARY\DEPS\INCLUDE /Zi /nologo /W3 /WX- /diagnostics:classic /sdl /O2 /Oi /Oy- /GL /D WIN32 /D NDEBUG /D _LIB /D SFML_STATIC /D _UNICODE /D UNICODE /Gm- /EHsc /MD /GS /Gy /fp:precise /Zc:wchar_t /Zc:forScope /Zc:inline /Fo"RELEASE\\" /Fd"RELEASE\TYR_ENGINE_LIBRARY.PDB" /Gd /TP /analyze- U:\TYR\TYR_ENGINE_LIBRARY\IMGUI\IMGUI_DRAW.CPP
^U:\TYR\TYR_ENGINE_LIBRARY\IMGUI\IMGUI_IMPL_GLFW_GL3.CPP
/c /IU:\TYR\TYR_ENGINE_LIBRARY\DEPS\INCLUDE /Zi /nologo /W3 /WX- /diagnostics:classic /sdl /O2 /Oi /Oy- /GL /D WIN32 /D NDEBUG /D _LIB /D SFML_STATIC /D _UNICODE /D UNICODE /Gm- /EHsc /MD /GS /Gy /fp:precise /Zc:wchar_t /Zc:forScope /Zc:inline /Fo"RELEASE\\" /Fd"RELEASE\TYR_ENGINE_LIBRARY.PDB" /Gd /TP /analyze- U:\TYR\TYR_ENGINE_LIBRARY\IMGUI\IMGUI_IMPL_GLFW_GL3.CPP
^U:\TYR\TYR_ENGINE_LIBRARY\MATERIAL.CPP
/c /IU:\TYR\TYR_ENGINE_LIBRARY\DEPS\INCLUDE /Zi /nologo /W3 /WX- /diagnostics:classic /sdl /O2 /Oi /Oy- /GL /D WIN32 /D NDEBUG /D _LIB /D SFML_STATIC /D _UNICODE /D UNICODE /Gm- /EHsc /MD /GS /Gy /fp:precise /Zc:wchar_t /Zc:forScope /Zc:inline /Fo"RELEASE\\" /Fd"RELEASE\TYR_ENGINE_LIBRARY.PDB" /Gd /TP /analyze- U:\TYR\TYR_ENGINE_LIBRARY\MATERIAL.CPP
^U:\TYR\TYR_ENGINE_LIBRARY\SKYBOX.CPP
/c /IU:\TYR\TYR_ENGINE_LIBRARY\DEPS\INCLUDE /Zi /nologo /W3 /WX- /diagnostics:classic /sdl /O2 /Oi /Oy- /GL /D WIN32 /D NDEBUG /D _LIB /D SFML_STATIC /D _UNICODE /D UNICODE /Gm- /EHsc /MD /GS /Gy /fp:precise /Zc:wchar_t /Zc:forScope /Zc:inline /Fo"RELEASE\\" /Fd"RELEASE\TYR_ENGINE_LIBRARY.PDB" /Gd /TP /analyze- U:\TYR\TYR_ENGINE_LIBRARY\SKYBOX.CPP
^U:\TYR\TYR_ENGINE_LIBRARY\SYSTEM.CPP
/c /IU:\TYR\TYR_ENGINE_LIBRARY\DEPS\INCLUDE /Zi /nologo /W3 /WX- /diagnostics:classic /sdl /O2 /Oi /Oy- /GL /D WIN32 /D NDEBUG /D _LIB /D SFML_STATIC /D _UNICODE /D UNICODE /Gm- /EHsc /MD /GS /Gy /fp:precise /Zc:wchar_t /Zc:forScope /Zc:inline /Fo"RELEASE\\" /Fd"RELEASE\TYR_ENGINE_LIBRARY.PDB" /Gd /TP /analyze- U:\TYR\TYR_ENGINE_LIBRARY\SYSTEM.CPP
^U:\TYR\TYR_ENGINE_LIBRARY\TEXTUREDMATERIAL.CPP
/c /IU:\TYR\TYR_ENGINE_LIBRARY\DEPS\INCLUDE /Zi /nologo /W3 /WX- /diagnostics:classic /sdl /O2 /Oi /Oy- /GL /D WIN32 /D NDEBUG /D _LIB /D SFML_STATIC /D _UNICODE /D UNICODE /Gm- /EHsc /MD /GS /Gy /fp:precise /Zc:wchar_t /Zc:forScope /Zc:inline /Fo"RELEASE\\" /Fd"RELEASE\TYR_ENGINE_LIBRARY.PDB" /Gd /TP /analyze- U:\TYR\TYR_ENGINE_LIBRARY\TEXTUREDMATERIAL.CPP
^U:\TYR\TYR_ENGINE_LIBRARY\TRANSFORMCOMPONENT.CPP
/c /IU:\TYR\TYR_ENGINE_LIBRARY\DEPS\INCLUDE /Zi /nologo /W3 /WX- /diagnostics:classic /sdl /O2 /Oi /Oy- /GL /D WIN32 /D NDEBUG /D _LIB /D SFML_STATIC /D _UNICODE /D UNICODE /Gm- /EHsc /MD /GS /Gy /fp:precise /Zc:wchar_t /Zc:forScope /Zc:inline /Fo"RELEASE\\" /Fd"RELEASE\TYR_ENGINE_LIBRARY.PDB" /Gd /TP /analyze- U:\TYR\TYR_ENGINE_LIBRARY\TRANSFORMCOMPONENT.CPP
^U:\TYR\TYR_ENGINE_LIBRARY\VAO.CPP
/c /IU:\TYR\TYR_ENGINE_LIBRARY\DEPS\INCLUDE /Zi /nologo /W3 /WX- /diagnostics:classic /sdl /O2 /Oi /Oy- /GL /D WIN32 /D NDEBUG /D _LIB /D SFML_STATIC /D _UNICODE /D UNICODE /Gm- /EHsc /MD /GS /Gy /fp:precise /Zc:wchar_t /Zc:forScope /Zc:inline /Fo"RELEASE\\" /Fd"RELEASE\TYR_ENGINE_LIBRARY.PDB" /Gd /TP /analyze- U:\TYR\TYR_ENGINE_LIBRARY\VAO.CPP
^U:\TYR\TYR_ENGINE_LIBRARY\WINDOW.CPP
/c /IU:\TYR\TYR_ENGINE_LIBRARY\DEPS\INCLUDE /Zi /nologo /W3 /WX- /diagnostics:classic /sdl /O2 /Oi /Oy- /GL /D WIN32 /D NDEBUG /D _LIB /D SFML_STATIC /D _UNICODE /D UNICODE /Gm- /EHsc /MD /GS /Gy /fp:precise /Zc:wchar_t /Zc:forScope /Zc:inline /Fo"RELEASE\\" /Fd"RELEASE\TYR_ENGINE_LIBRARY.PDB" /Gd /TP /analyze- U:\TYR\TYR_ENGINE_LIBRARY\WINDOW.CPP
^U:\TYR\TYR_ENGINE_LIBRARY\MESH.CPP
/c /IU:\TYR\TYR_ENGINE_LIBRARY\DEPS\INCLUDE /Zi /nologo /W3 /WX- /diagnostics:classic /sdl /O2 /Oi /Oy- /GL /D WIN32 /D NDEBUG /D _LIB /D SFML_STATIC /D _UNICODE /D UNICODE /Gm- /EHsc /MD /GS /Gy /fp:precise /Zc:wchar_t /Zc:forScope /Zc:inline /Fo"RELEASE\\" /Fd"RELEASE\TYR_ENGINE_LIBRARY.PDB" /Gd /TP /analyze- U:\TYR\TYR_ENGINE_LIBRARY\MESH.CPP
^U:\TYR\TYR_ENGINE_LIBRARY\COMMAND.CPP
/c /IU:\TYR\TYR_ENGINE_LIBRARY\DEPS\INCLUDE /Zi /nologo /W3 /WX- /diagnostics:classic /sdl /O2 /Oi /Oy- /GL /D WIN32 /D NDEBUG /D _LIB /D SFML_STATIC /D _UNICODE /D UNICODE /Gm- /EHsc /MD /GS /Gy /fp:precise /Zc:wchar_t /Zc:forScope /Zc:inline /Fo"RELEASE\\" /Fd"RELEASE\TYR_ENGINE_LIBRARY.PDB" /Gd /TP /analyze- U:\TYR\TYR_ENGINE_LIBRARY\COMMAND.CPP
^U:\TYR\TYR_ENGINE_LIBRARY\CONTROLLERCOMPONENT.CPP
/c /IU:\TYR\TYR_ENGINE_LIBRARY\DEPS\INCLUDE /Zi /nologo /W3 /WX- /diagnostics:classic /sdl /O2 /Oi /Oy- /GL /D WIN32 /D NDEBUG /D _LIB /D SFML_STATIC /D _UNICODE /D UNICODE /Gm- /EHsc /MD /GS /Gy /fp:precise /Zc:wchar_t /Zc:forScope /Zc:inline /Fo"RELEASE\\" /Fd"RELEASE\TYR_ENGINE_LIBRARY.PDB" /Gd /TP /analyze- U:\TYR\TYR_ENGINE_LIBRARY\CONTROLLERCOMPONENT.CPP
^U:\TYR\TYR_ENGINE_LIBRARY\ENTITY.CPP
/c /IU:\TYR\TYR_ENGINE_LIBRARY\DEPS\INCLUDE /Zi /nologo /W3 /WX- /diagnostics:classic /sdl /O2 /Oi /Oy- /GL /D WIN32 /D NDEBUG /D _LIB /D SFML_STATIC /D _UNICODE /D UNICODE /Gm- /EHsc /MD /GS /Gy /fp:precise /Zc:wchar_t /Zc:forScope /Zc:inline /Fo"RELEASE\\" /Fd"RELEASE\TYR_ENGINE_LIBRARY.PDB" /Gd /TP /analyze- U:\TYR\TYR_ENGINE_LIBRARY\ENTITY.CPP
^U:\TYR\TYR_ENGINE_LIBRARY\FONT.CPP
/c /IU:\TYR\TYR_ENGINE_LIBRARY\DEPS\INCLUDE /Zi /nologo /W3 /WX- /diagnostics:classic /sdl /O2 /Oi /Oy- /GL /D WIN32 /D NDEBUG /D _LIB /D SFML_STATIC /D _UNICODE /D UNICODE /Gm- /EHsc /MD /GS /Gy /fp:precise /Zc:wchar_t /Zc:forScope /Zc:inline /Fo"RELEASE\\" /Fd"RELEASE\TYR_ENGINE_LIBRARY.PDB" /Gd /TP /analyze- U:\TYR\TYR_ENGINE_LIBRARY\FONT.CPP
^U:\TYR\TYR_ENGINE_LIBRARY\FRAMEBUFFER.CPP
/c /IU:\TYR\TYR_ENGINE_LIBRARY\DEPS\INCLUDE /Zi /nologo /W3 /WX- /diagnostics:classic /sdl /O2 /Oi /Oy- /GL /D WIN32 /D NDEBUG /D _LIB /D SFML_STATIC /D _UNICODE /D UNICODE /Gm- /EHsc /MD /GS /Gy /fp:precise /Zc:wchar_t /Zc:forScope /Zc:inline /Fo"RELEASE\\" /Fd"RELEASE\TYR_ENGINE_LIBRARY.PDB" /Gd /TP /analyze- U:\TYR\TYR_ENGINE_LIBRARY\FRAMEBUFFER.CPP
^U:\TYR\TYR_ENGINE_LIBRARY\GL_UTIL.CPP
/c /IU:\TYR\TYR_ENGINE_LIBRARY\DEPS\INCLUDE /Zi /nologo /W3 /WX- /diagnostics:classic /sdl /O2 /Oi /Oy- /GL /D WIN32 /D NDEBUG /D _LIB /D SFML_STATIC /D _UNICODE /D UNICODE /Gm- /EHsc /MD /GS /Gy /fp:precise /Zc:wchar_t /Zc:forScope /Zc:inline /Fo"RELEASE\\" /Fd"RELEASE\TYR_ENGINE_LIBRARY.PDB" /Gd /TP /analyze- U:\TYR\TYR_ENGINE_LIBRARY\GL_UTIL.CPP
^U:\TYR\TYR_ENGINE_LIBRARY\INPUTSYSTEM.CPP
/c /IU:\TYR\TYR_ENGINE_LIBRARY\DEPS\INCLUDE /Zi /nologo /W3 /WX- /diagnostics:classic /sdl /O2 /Oi /Oy- /GL /D WIN32 /D NDEBUG /D _LIB /D SFML_STATIC /D _UNICODE /D UNICODE /Gm- /EHsc /MD /GS /Gy /fp:precise /Zc:wchar_t /Zc:forScope /Zc:inline /Fo"RELEASE\\" /Fd"RELEASE\TYR_ENGINE_LIBRARY.PDB" /Gd /TP /analyze- U:\TYR\TYR_ENGINE_LIBRARY\INPUTSYSTEM.CPP
^U:\TYR\TYR_ENGINE_LIBRARY\MODEL.CPP
/c /IU:\TYR\TYR_ENGINE_LIBRARY\DEPS\INCLUDE /Zi /nologo /W3 /WX- /diagnostics:classic /sdl /O2 /Oi /Oy- /GL /D WIN32 /D NDEBUG /D _LIB /D SFML_STATIC /D _UNICODE /D UNICODE /Gm- /EHsc /MD /GS /Gy /fp:precise /Zc:wchar_t /Zc:forScope /Zc:inline /Fo"RELEASE\\" /Fd"RELEASE\TYR_ENGINE_LIBRARY.PDB" /Gd /TP /analyze- U:\TYR\TYR_ENGINE_LIBRARY\MODEL.CPP
^U:\TYR\TYR_ENGINE_LIBRARY\MOVEFORWARDCOMMAND.CPP
/c /IU:\TYR\TYR_ENGINE_LIBRARY\DEPS\INCLUDE /Zi /nologo /W3 /WX- /diagnostics:classic /sdl /O2 /Oi /Oy- /GL /D WIN32 /D NDEBUG /D _LIB /D SFML_STATIC /D _UNICODE /D UNICODE /Gm- /EHsc /MD /GS /Gy /fp:precise /Zc:wchar_t /Zc:forScope /Zc:inline /Fo"RELEASE\\" /Fd"RELEASE\TYR_ENGINE_LIBRARY.PDB" /Gd /TP /analyze- U:\TYR\TYR_ENGINE_LIBRARY\MOVEFORWARDCOMMAND.CPP
^U:\TYR\TYR_ENGINE_LIBRARY\MOVERIGHTCOMMAND.CPP
/c /IU:\TYR\TYR_ENGINE_LIBRARY\DEPS\INCLUDE /Zi /nologo /W3 /WX- /diagnostics:classic /sdl /O2 /Oi /Oy- /GL /D WIN32 /D NDEBUG /D _LIB /D SFML_STATIC /D _UNICODE /D UNICODE /Gm- /EHsc /MD /GS /Gy /fp:precise /Zc:wchar_t /Zc:forScope /Zc:inline /Fo"RELEASE\\" /Fd"RELEASE\TYR_ENGINE_LIBRARY.PDB" /Gd /TP /analyze- U:\TYR\TYR_ENGINE_LIBRARY\MOVERIGHTCOMMAND.CPP
^U:\TYR\TYR_ENGINE_LIBRARY\MOVEXYZCOMMAND.CPP
/c /IU:\TYR\TYR_ENGINE_LIBRARY\DEPS\INCLUDE /Zi /nologo /W3 /WX- /diagnostics:classic /sdl /O2 /Oi /Oy- /GL /D WIN32 /D NDEBUG /D _LIB /D SFML_STATIC /D _UNICODE /D UNICODE /Gm- /EHsc /MD /GS /Gy /fp:precise /Zc:wchar_t /Zc:forScope /Zc:inline /Fo"RELEASE\\" /Fd"RELEASE\TYR_ENGINE_LIBRARY.PDB" /Gd /TP /analyze- U:\TYR\TYR_ENGINE_LIBRARY\MOVEXYZCOMMAND.CPP
^U:\TYR\TYR_ENGINE_LIBRARY\RENDERABLECOMPONENT.CPP
/c /IU:\TYR\TYR_ENGINE_LIBRARY\DEPS\INCLUDE /Zi /nologo /W3 /WX- /diagnostics:classic /sdl /O2 /Oi /Oy- /GL /D WIN32 /D NDEBUG /D _LIB /D SFML_STATIC /D _UNICODE /D UNICODE /Gm- /EHsc /MD /GS /Gy /fp:precise /Zc:wchar_t /Zc:forScope /Zc:inline /Fo"RELEASE\\" /Fd"RELEASE\TYR_ENGINE_LIBRARY.PDB" /Gd /TP /analyze- U:\TYR\TYR_ENGINE_LIBRARY\RENDERABLECOMPONENT.CPP
^U:\TYR\TYR_ENGINE_LIBRARY\SCENENODE.CPP
/c /IU:\TYR\TYR_ENGINE_LIBRARY\DEPS\INCLUDE /Zi /nologo /W3 /WX- /diagnostics:classic /sdl /O2 /Oi /Oy- /GL /D WIN32 /D NDEBUG /D _LIB /D SFML_STATIC /D _UNICODE /D UNICODE /Gm- /EHsc /MD /GS /Gy /fp:precise /Zc:wchar_t /Zc:forScope /Zc:inline /Fo"RELEASE\\" /Fd"RELEASE\TYR_ENGINE_LIBRARY.PDB" /Gd /TP /analyze- U:\TYR\TYR_ENGINE_LIBRARY\SCENENODE.CPP
^U:\TYR\TYR_ENGINE_LIBRARY\TEXTUTILS.CPP
/c /IU:\TYR\TYR_ENGINE_LIBRARY\DEPS\INCLUDE /Zi /nologo /W3 /WX- /diagnostics:classic /sdl /O2 /Oi /Oy- /GL /D WIN32 /D NDEBUG /D _LIB /D SFML_STATIC /D _UNICODE /D UNICODE /Gm- /EHsc /MD /GS /Gy /fp:precise /Zc:wchar_t /Zc:forScope /Zc:inline /Fo"RELEASE\\" /Fd"RELEASE\TYR_ENGINE_LIBRARY.PDB" /Gd /TP /analyze- U:\TYR\TYR_ENGINE_LIBRARY\TEXTUTILS.CPP
^U:\TYR\TYR_ENGINE_LIBRARY\UTILS.CPP
/c /IU:\TYR\TYR_ENGINE_LIBRARY\DEPS\INCLUDE /Zi /nologo /W3 /WX- /diagnostics:classic /sdl /O2 /Oi /Oy- /GL /D WIN32 /D NDEBUG /D _LIB /D SFML_STATIC /D _UNICODE /D UNICODE /Gm- /EHsc /MD /GS /Gy /fp:precise /Zc:wchar_t /Zc:forScope /Zc:inline /Fo"RELEASE\\" /Fd"RELEASE\TYR_ENGINE_LIBRARY.PDB" /Gd /TP /analyze- U:\TYR\TYR_ENGINE_LIBRARY\UTILS.CPP
^U:\TYR\TYR_ENGINE_LIBRARY\RENDERINGSYSTEM.CPP
/c /IU:\TYR\TYR_ENGINE_LIBRARY\DEPS\INCLUDE /Zi /nologo /W3 /WX- /diagnostics:classic /sdl /O2 /Oi /Oy- /GL /D WIN32 /D NDEBUG /D _LIB /D SFML_STATIC /D _UNICODE /D UNICODE /Gm- /EHsc /MD /GS /Gy /fp:precise /Zc:wchar_t /Zc:forScope /Zc:inline /Fo"RELEASE\\" /Fd"RELEASE\TYR_ENGINE_LIBRARY.PDB" /Gd /TP /analyze- U:\TYR\TYR_ENGINE_LIBRARY\RENDERINGSYSTEM.CPP
^U:\TYR\TYR_ENGINE_LIBRARY\SCENE.CPP
/c /IU:\TYR\TYR_ENGINE_LIBRARY\DEPS\INCLUDE /Zi /nologo /W3 /WX- /diagnostics:classic /sdl /O2 /Oi /Oy- /GL /D WIN32 /D NDEBUG /D _LIB /D SFML_STATIC /D _UNICODE /D UNICODE /Gm- /EHsc /MD /GS /Gy /fp:precise /Zc:wchar_t /Zc:forScope /Zc:inline /Fo"RELEASE\\" /Fd"RELEASE\TYR_ENGINE_LIBRARY.PDB" /Gd /TP /analyze- U:\TYR\TYR_ENGINE_LIBRARY\SCENE.CPP
^U:\TYR\TYR_ENGINE_LIBRARY\GAME.CPP
/c /IU:\TYR\TYR_ENGINE_LIBRARY\DEPS\INCLUDE /Zi /nologo /W3 /WX- /diagnostics:classic /sdl /O2 /Oi /Oy- /GL /D WIN32 /D NDEBUG /D _LIB /D SFML_STATIC /D _UNICODE /D UNICODE /Gm- /EHsc /MD /GS /Gy /fp:precise /Zc:wchar_t /Zc:forScope /Zc:inline /Fo"RELEASE\\" /Fd"RELEASE\TYR_ENGINE_LIBRARY.PDB" /Gd /TP /analyze- U:\TYR\TYR_ENGINE_LIBRARY\GAME.CPP
